loc_id#location#state#forecast_date#issue_date#issue_time#min_0#max_0#min_1#max_1#min_2#max_2#min_3#max_3#min_4#max_4#min_5#max_5#min_6#max_6#min_7#max_7#forecast_0#forecast_1#forecast_2#forecast_3#forecast_4#forecast_5#forecast_6#forecast_7#
094211#Bellerive#TAS#20121115#20121115#150935###7#15#7#16#10#16#8#20#10#23#13#22#9#18#Partly cloudy.#Shower or two.#Partly cloudy.#A few showers.#Partly cloudy.#Partly cloudy.#Shower or two.#Shower or two.#
095046#Bothwell#TAS#20121115#20121115#150935###6#15#3#17#6#13#5#20#7#22#11#20#7#17#Partly cloudy.#Shower or two.#Partly cloudy.#A few showers.#Partly cloudy.#Partly cloudy.#Shower or two.#Shower or two.#
091284#Bridport#TAS#20121115#20121115#150935###7#18#8#17#10#14#8#18#10#19#13#19#9#19#Clear.#Mostly sunny.#Partly cloudy.#A few showers.#Mostly sunny.#Partly cloudy.#Shower or two.#Morning shower or two.#
091009#Burnie#TAS#20121115#20121115#150935###6#17#7#16#8#16#8#18#10#19#13#19#9#19#Mostly clear.#Afternoon shower or two.#Partly cloudy.#Shower or two clearing.#Mostly sunny.#Partly cloudy.#Shower or two. Becoming windy.#Morning shower or two.#
093033#Campbell Town#TAS#20121115#20121115#150935###5#17#2#18#6#15#4#20#7#22#10#20#6#18#Mostly clear.#Possible afternoon shower.#Becoming cloudy.#A few showers.#Mostly sunny.#Partly cloudy.#Shower or two.#Shower or two.#
096034#Cradle Valley#TAS#20121115#20121115#150935###3#12#1#14#2#10#3#17#4#17#9#16#4#16#Shower or two.#A few showers.#Becoming cloudy.#A few showers.#Partly cloudy.#Partly cloudy.#A few showers.#Shower or two.#
091306#Cressy#TAS#20121115#20121115#150935###4#17#2#18#6#16#4#20#6#21#10#19#6#19#Mostly clear.#Possible afternoon shower.#Becoming cloudy.#A few showers.#Mostly sunny.#Partly cloudy.#Shower or two.#Shower or two.#
098011#Currie#TAS#20121115#20121115#150935###9#15#10#15#10#13#10#16#11#20#12#17#10#16#Shower or two.#Shower or two.#Possible morning shower.#Morning shower or two.#Mostly sunny.#Partly cloudy.#Shower or two. Windy.#Morning shower or two. Windy.#
091000#Deloraine#TAS#20121115#20121115#150935###5#17#4#18#6#15#5#19#6#20#11#20#7#21#Mostly clear.#Partly cloudy.#Partly cloudy.#A few showers clearing.#Mostly sunny.#Partly cloudy.#Shower or two.#Morning shower or two.#
091126#Devonport#TAS#20121115#20121115#150935###6#17#6#16#9#16#7#18#9#19#12#19#8#19#Clear.#Mostly sunny.#Partly cloudy.#Shower or two clearing.#Mostly sunny.#Partly cloudy.#Shower or two. Becoming windy.#Morning shower or two.#
091286#George Town#TAS#20121115#20121115#150935###8#18#8#17#8#16#8#19#10#20#14#19#10#21#Clear.#Mostly sunny.#Partly cloudy.#Shower or two clearing.#Mostly sunny.#Partly cloudy.#Shower or two.#Morning shower or two.#
094025#Glenorchy#TAS#20121115#20121115#150935###6#15#6#16#9#16#7#20#9#23#12#22#9#18#Partly cloudy.#Shower or two.#Partly cloudy.#A few showers.#Partly cloudy.#Partly cloudy.#Shower or two.#Shower or two.#
094029#Hobart#TAS#20121115#20121115#150935###7#15#7#16#10#16#9#20#10#23#13#22#10#18#Partly cloudy.#Shower or two.#Partly cloudy.#A few showers.#Partly cloudy.#Partly cloudy.#Shower or two.#Shower or two.#
094089#Huonville#TAS#20121115#20121115#150935###6#15#4#17#8#13#6#19#7#23#11#22#7#17#Shower or two.#Shower or two.#Partly cloudy.#A few showers.#Partly cloudy.#Partly cloudy.#Shower or two.#Shower or two.#
094222#Kingston#TAS#20121115#20121115#150935###7#15#7#16#10#16#9#20#10#23#13#22#10#18#Shower or two.#Shower or two.#Partly cloudy.#A few showers.#Partly cloudy.#Partly cloudy.#Shower or two.#Shower or two.#
096071#Lake St Clair#TAS#20121115#20121115#150935###2#11#0#13#4#8#2#17#4#20#8#15#3#14#A few showers.#A few showers.#Partly cloudy.#A few showers.#Partly cloudy.#Partly cloudy.#A few showers.#Shower or two.#
091237#Launceston#TAS#20121115#20121115#150935###5#18#5#19#8#18#6#21#8#22#13#21#7#21#Clear.#Partly cloudy.#Partly cloudy.#A few showers.#Mostly sunny.#Partly cloudy.#Shower or two.#Morning shower or two.#
097007#Melaleuca#TAS#20121115#20121115#150935###8#15#8#16#8#11#8#20#9#22#13#19#9#18#A few showers.#A few showers.#Shower or two clearing.#A few showers.#Partly cloudy.#Shower or two developing.#Shower or two.#Shower or two.#
094087#Mount Wellington#TAS#20121115#20121115#150935###1#6#-1#7#1#6#1#11#2#15#6#12#2#8#Partly cloudy.#Snow showers.#Partly cloudy.#Showers then snow showers.#Partly cloudy.#Partly cloudy.#Shower or two.#Shower or two.#
091316#Mowbray#TAS#20121115#20121115#150935###5#18#5#19#8#18#6#21#8#22#12#21#7#21#Clear.#Partly cloudy.#Partly cloudy.#A few showers.#Mostly sunny.#Partly cloudy.#Shower or two.#Morning shower or two.#
095066#New Norfolk#TAS#20121115#20121115#150935###5#16#4#19#9#15#6#22#7#25#11#22#7#19#Partly cloudy.#Shower or two.#Partly cloudy.#A few showers.#Partly cloudy.#Partly cloudy.#Shower or two.#Shower or two.#
093014#Oatlands#TAS#20121115#20121115#150935###4#14#2#15#3#13#4#18#7#20#10#18#6#15#Mostly clear.#Possible shower.#Becoming cloudy.#A few showers.#Partly cloudy.#Partly cloudy.#Shower or two.#Shower or two.#
092027#Orford#TAS#20121115#20121115#150935###6#15#6#15#7#15#8#18#10#21#12#21#9#17#A few showers.#Shower or two.#Partly cloudy.#A few showers.#Partly cloudy.#Partly cloudy.#Shower or two.#Shower or two.#
094157#Port Arthur#TAS#20121115#20121115#150935###8#16#9#15#11#13#10#18#11#20#13#20#10#19#Shower or two.#A few showers.#Morning shower or two.#A few showers clearing.#Partly cloudy.#Partly cloudy.#A few showers.#Shower or two. Windy.#
091123#Prospect#TAS#20121115#20121115#150935###4#18#4#19#7#18#5#21#7#22#12#21#7#21#Mostly clear.#Partly cloudy.#Partly cloudy.#A few showers.#Mostly sunny.#Partly cloudy.#Shower or two.#Morning shower or two.#
097008#Queenstown#TAS#20121115#20121115#150935###6#14#5#16#6#11#5#20#8#24#13#18#7#18#A few showers.#A few showers.#Possible shower.#A few showers.#Partly cloudy.#Shower or two developing.#A few showers.#Shower or two.#
094177#Richmond#TAS#20121115#20121115#150935###6#16#5#18#9#16#6#21#9#24#12#22#8#18#Partly cloudy.#Shower or two.#Partly cloudy.#A few showers.#Partly cloudy.#Partly cloudy.#Shower or two.#Shower or two.#
097089#Rosebery#TAS#20121115#20121115#150935###7#15#5#17#5#12#5#21#8#23#13#19#8#19#A few showers.#A few showers.#Possible shower.#A few showers.#Partly cloudy.#Shower or two developing.#A few showers.#Shower or two.#
093053#Ross#TAS#20121115#20121115#150935###5#17#2#18#5#15#4#20#7#22#10#20#6#18#Mostly clear.#Possible afternoon shower.#Becoming cloudy.#A few showers.#Mostly sunny.#Partly cloudy.#Shower or two.#Shower or two.#
091219#Scottsdale#TAS#20121115#20121115#150935###5#19#4#17#6#14#5#19#7#20#11#20#7#19#Mostly clear.#Partly cloudy.#Becoming cloudy.#A few showers.#Mostly sunny.#Partly cloudy.#Shower or two.#Morning shower or two.#
091292#Smithton#TAS#20121115#20121115#150935###7#15#7#16#7#15#7#18#9#19#12#18#8#18#Shower or two.#Shower or two.#Possible afternoon shower.#A few showers clearing.#Mostly sunny.#Partly cloudy.#A few showers.#Morning shower or two.#
092033#St Helens#TAS#20121115#20121115#150935###6#17#7#17#11#16#8#19#10#21#12#22#9#20#A few showers.#Shower or two.#Becoming cloudy.#Shower or two.#Partly cloudy.#Partly cloudy.#Shower or two developing.#Morning shower or two.#
097072#Strahan Town#TAS#20121115#20121115#150935###7#14#7#15#10#12#7#18#9#23#13#18#9#18#A few showers.#A few showers.#Possible shower.#A few showers.#Partly cloudy.#Shower or two developing.#A few showers.#Shower or two.#
092038#Swansea#TAS#20121115#20121115#150935###7#16#6#17#10#15#8#19#10#21#13#22#9#18#A few showers.#Shower or two.#Partly cloudy.#Shower or two.#Partly cloudy.#Partly cloudy.#Shower or two.#Shower or two.#
095018#Tarraleah#TAS#20121115#20121115#150935###3#13#1#15#5#11#3#18#5#22#9#17#4#16#A few showers.#A few showers.#Partly cloudy.#A few showers.#Partly cloudy.#Shower or two developing.#Shower or two.#Shower or two.#
091102#Ulverstone#TAS#20121115#20121115#150935###6#17#7#16#9#16#8#18#10#19#13#19#9#19#Clear.#Mostly sunny.#Partly cloudy.#Shower or two clearing.#Mostly sunny.#Partly cloudy.#Shower or two. Becoming windy.#Morning shower or two.#
099015#Whitemark#TAS#20121115#20121115#150935###10#18#9#18#8#16#10#20#12#21#14#22#10#20#Mostly clear.#Sunny.#Shower or two.#Shower or two clearing.#Mostly sunny.#Mostly sunny.#Shower or two developing.#Shower or two. Wind easing.#
091107#Wynyard#TAS#20121115#20121115#150935###6#17#6#16#6#16#6#18#8#19#11#19#7#19#Mostly clear.#Afternoon shower or two.#Partly cloudy.#Shower or two clearing.#Sunny.#Partly cloudy.#A few showers.#Morning shower or two.#
